[
    {
        "actionName": "Action",
        "steps": [
            {
                "stepId": "STEP1",
                "stepName": "Url: www.testautomationguru.com",
                "infFile": "t2.inf",
                "time": 1549885322469
            },
            {
                "stepId": "STEP2",
                "stepName": "Url: json",
                "infFile": "t3.inf",
                "time": 1549885323021
            },
            {
                "stepId": "STEP3",
                "stepName": "Url: admin-ajax.php",
                "infFile": "t4.inf",
                "time": 1549885324782
            },
            {
                "stepId": "STEP4",
                "stepName": "Url: 156995",
                "infFile": "t5.inf",
                "time": 1549885325426
            },
            {
                "stepId": "STEP5",
                "stepName": "Url: settings-1549347575.json",
                "infFile": "t6.inf",
                "time": 1549885325710
            },
            {
                "stepId": "STEP6",
                "stepName": "Url: index-1530067185.html",
                "infFile": "t7.inf",
                "time": 1549885326696
            },
            {
                "stepId": "STEP7",
                "stepName": "Url: zrt_lookup.html",
                "infFile": "t8.inf",
                "time": 1549885327982
            },
            {
                "stepId": "STEP8",
                "stepName": "Url: ads",
                "infFile": "t9.inf",
                "time": 1549885330518
            },
            {
                "stepId": "STEP9",
                "stepName": "Url: adview",
                "infFile": "t10.inf",
                "time": 1549885330804
            },
            {
                "stepId": "STEP10",
                "stepName": "Url: like.php",
                "infFile": "t11.inf",
                "time": 1549885331767
            },
            {
                "stepId": "STEP11",
                "stepName": "Url: selenium",
                "infFile": "t12.inf",
                "time": 1549885333907
            },
            {
                "stepId": "STEP12",
                "stepName": "Url: zrt_lookup.html_2",
                "infFile": "t13.inf",
                "time": 1549885333975
            },
            {
                "stepId": "STEP13",
                "stepName": "Url: ads_2",
                "infFile": "t14.inf",
                "time": 1549885334910
            },
            {
                "stepId": "STEP14",
                "stepName": "Url: ads_3",
                "infFile": "t15.inf",
                "time": 1549885335802
            },
            {
                "stepId": "STEP15",
                "stepName": "Url: like.php_2",
                "infFile": "t16.inf",
                "time": 1549885336202
            },
            {
                "stepId": "STEP16",
                "stepName": "Url: adview_2",
                "infFile": "t17.inf",
                "time": 1549885336748
            },
            {
                "stepId": "STEP17",
                "stepName": "Url: like.php_3",
                "infFile": "t18.inf",
                "time": 1549885337417
            },
            {
                "stepId": "STEP18",
                "stepName": "Url: admin-ajax.php_2",
                "infFile": "t19.inf",
                "time": 1549885338726
            },
            {
                "stepId": "STEP19",
                "stepName": "Url: adview_3",
                "infFile": "t20.inf",
                "time": 1549885339170
            },
            {
                "stepId": "STEP20",
                "stepName": "Url: jmeter",
                "infFile": "t21.inf",
                "time": 1549885340566
            },
            {
                "stepId": "STEP21",
                "stepName": "Url: zrt_lookup.html_3",
                "infFile": "t22.inf",
                "time": 1549885340635
            },
            {
                "stepId": "STEP22",
                "stepName": "Url: ads_4",
                "infFile": "t23.inf",
                "time": 1549885341416
            },
            {
                "stepId": "STEP23",
                "stepName": "Url: ads_5",
                "infFile": "t24.inf",
                "time": 1549885343333
            },
            {
                "stepId": "STEP24",
                "stepName": "Url: like.php_4",
                "infFile": "t25.inf",
                "time": 1549885343737
            },
            {
                "stepId": "STEP25",
                "stepName": "Url: adview_4",
                "infFile": "t26.inf",
                "time": 1549885344027
            },
            {
                "stepId": "STEP26",
                "stepName": "Url: admin-ajax.php_3",
                "infFile": "t27.inf",
                "time": 1549885344892
            },
            {
                "stepId": "STEP27",
                "stepName": "Url: like.php_5",
                "infFile": "t28.inf",
                "time": 1549885345563
            },
            {
                "stepId": "STEP28",
                "stepName": "Url: adview_5",
                "infFile": "t29.inf",
                "time": 1549885345852
            },
            {
                "stepId": "STEP29",
                "stepName": "Url: ci-cd",
                "infFile": "t30.inf",
                "time": 1549885347896
            },
            {
                "stepId": "STEP30",
                "stepName": "Url: like.php_6",
                "infFile": "t31.inf",
                "time": 1549885348306
            },
            {
                "stepId": "STEP31",
                "stepName": "Url: admin-ajax.php_4",
                "infFile": "t32.inf",
                "time": 1549885349256
            },
            {
                "stepId": "STEP32",
                "stepName": "Url: like.php_7",
                "infFile": "t33.inf",
                "time": 1549885350265
            },
            {
                "stepId": "STEP33",
                "stepName": "Url: docker",
                "infFile": "t34.inf",
                "time": 1549885352056
            },
            {
                "stepId": "STEP34",
                "stepName": "Url: like.php_8",
                "infFile": "t35.inf",
                "time": 1549885352440
            },
            {
                "stepId": "STEP35",
                "stepName": "Url: like.php_9",
                "infFile": "t36.inf",
                "time": 1549885353128
            },
            {
                "stepId": "STEP36",
                "stepName": "Url: admin-ajax.php_5",
                "infFile": "t37.inf",
                "time": 1549885353999
            }
        ],
        "transactions": [
            {
                "transactionName": "TC001_01_OpenHomePage",
                "rawStartTime": 1549885310387,
                "rawEndTime": 1549885331769,
                "thinkTime": 0.0,
                "wastedTime": 1.7515103816986085
            },
            {
                "transactionName": "TC001_02_SelectSelenium",
                "rawStartTime": 1549885331773,
                "rawEndTime": 1549885339172,
                "thinkTime": 0.0,
                "wastedTime": 0.2549102306365967
            },
            {
                "transactionName": "TC001_03_SelectJemeter",
                "rawStartTime": 1549885339175,
                "rawEndTime": 1549885345854,
                "thinkTime": 0.0,
                "wastedTime": 0.2306985855102539
            },
            {
                "transactionName": "TC001_04_SelectDevops",
                "rawStartTime": 1549885345857,
                "rawEndTime": 1549885350267,
                "thinkTime": 0.0,
                "wastedTime": 0.18925738334655763
            },
            {
                "transactionName": "TC005_05_SelectDocker",
                "rawStartTime": 1549885350271,
                "rawEndTime": 1549885354000,
                "thinkTime": 0.0,
                "wastedTime": 0.19355392456054688
            }
        ]
    }
]