GET / HTTP/1.1
User-Agent: Mozilla/5.0 (Windows NT 10.0; Win64; x64) AppleWebKit/537.36 (KHTML, like Gecko) Chrome/71.0.3578.98 Safari/537.36
Accept-Encoding: gzip, deflate
Accept-Language: en-US,en;q=0.7,th;q=0.3
Accept: */*
Connection: Keep-Alive
Host: www.testautomationguru.com
Cookie: _gid=GA1.2.1213495712.1549427284; _ga=GA1.2.1371860207.1549427271; _mailmunch_visitor_id=ddbdf379-8c90-47b0-91df-de883138d4dd; mailmunch_shown_203533=true; mailmunch_second_pageview=true; _mailmunch_seen_month=true

