GET /pagead/ads?client=ca-pub-5967187374778709&output=html&h=250&slotname=8887149706&adk=1275891984&adf=3622900839&w=310&fwrn=4&fwrnh=100&lmt=1549427560&rafmt=1&guci=2.2.0.0.2.2.0.0&format=310x250&url=http%3A%2F%2Fwww.testautomationguru.com%2F&flash=32.0.0&fwr=0&resp_fmts=3&wgl=1&dt=1549427560496&bpp=88&bdt=8733&fdt=415&idt=382&shv=r20190204&cbv=r20190131&saldr=aa&abxe=1&correlator=7942659401207&frm=20&pv=2&ga_vid=1213495712.1549427284&ga_sid=1549427561&ga_hid=1267693436&ga_fc=0&icsg=1108491397758972&dssz=37&mdo=0&mso=0&u_tz=420&u_his=1&u_java=1&u_h=720&u_w=1280&u_ah=680&u_aw=1280&u_cd=24&u_nplug=1&u_nmime=2&adx=865&ady=1039&biw=1280&bih=607&scr_x=0&scr_y=0&eid=21060853%2C21062572%2C410075101&oid=3&rx=0&eae=0&fc=656&docm=11&brdim=0%2C73%2C-7%2C-7%2C1280%2C%2C1295%2C695%2C1280%2C607&vis=1&rsz=o%7Co%7CeEbr%7C&abl=NS&ppjl=f&pfx=0&fu=144&bc=1&ifi=1&uci=1.5ly1bvc3nb8x&xpc=U3boNcZGW0&p=http%3A//www.testautomationguru.com&dtd=520 HTTP/1.1
Accept: text/html, application/xhtml+xml, image/jxr, */*
Host: googleads.g.doubleclick.net
Connection: Keep-Alive
Referer: http://www.testautomationguru.com/
Accept-Language: en-US,en;q=0.7,th;q=0.3
User-Agent: Mozilla/5.0 (Windows NT 10.0; WOW64; Trident/7.0; rv:11.0) like Gecko
Accept-Encoding: gzip, deflate
Cookie: IDE=AHWqTUnmSxRCUIr5QRvuzE3_RmHrrOXboTEjUZPl2NcOrG4idfAn-VsPpDt5_xK9; DSID=NO_DATA

