GET /pagead/ads?client=ca-pub-5967187374778709&output=html&h=90&slotname=8887149706&adk=2366443721&adf=10715234&w=1020&fwrn=4&fwrnh=100&lmt=1549427626&rafmt=1&guci=2.2.0.0.2.2.0.0&format=1020x90&url=http%3A%2F%2Fwww.testautomationguru.com%2Fselenium%2F&flash=32.0.0&fwr=0&resp_fmts=3&wgl=1&dt=1549427626205&bpp=25&bdt=689&fdt=435&idt=67&shv=r20190204&cbv=r20190131&saldr=aa&abxe=1&prev_fmts=1020x90&correlator=7096801555006&frm=20&pv=1&ga_vid=1213495712.1549427284&ga_sid=1549427626&ga_hid=714536060&ga_fc=0&icsg=4436164614291452&dssz=40&mdo=0&mso=0&u_tz=420&u_his=2&u_java=1&u_h=720&u_w=1280&u_ah=680&u_aw=1280&u_cd=24&u_nplug=1&u_nmime=2&adx=130&ady=2523&biw=1280&bih=607&scr_x=0&scr_y=0&eid=21060853%2C410075101&oid=3&ref=http%3A%2F%2Fwww.testautomationguru.com%2F&rx=0&eae=0&fc=656&docm=11&brdim=0%2C73%2C-7%2C-7%2C1280%2C%2C1295%2C695%2C1280%2C607&vis=1&rsz=%7C%7CeEbr%7C&abl=CS&ppjl=f&pfx=0&fu=144&bc=1&ifi=2&uci=2.krk9mcgwbu8m&xpc=nJCrnoUSAU&p=http%3A//www.testautomationguru.com&dtd=514 HTTP/1.1
Accept: text/html, application/xhtml+xml, image/jxr, */*
Referer: http://www.testautomationguru.com/selenium/
Accept-Language: en-US,en;q=0.7,th;q=0.3
User-Agent: Mozilla/5.0 (Windows NT 10.0; WOW64; Trident/7.0; rv:11.0) like Gecko
Accept-Encoding: gzip, deflate
Host: googleads.g.doubleclick.net
Connection: Keep-Alive
Cookie: IDE=AHWqTUnmSxRCUIr5QRvuzE3_RmHrrOXboTEjUZPl2NcOrG4idfAn-VsPpDt5_xK9; DSID=NO_DATA

