		12.60.971.0                   D:\load\bin\VuGen.exe
		10.0.17134.228 (WinBuild.160101.0800)C:\Windows\SYSTEM32\ntdll.dll
		10.0.17134.1 (WinBuild.160101.0800)C:\Windows\SYSTEM32\MSCOREE.DLL
		10.0.17134.376 (WinBuild.160101.0800)C:\Windows\System32\KERNEL32.dll
		10.0.17134.376 (WinBuild.160101.0800)C:\Windows\System32\KERNELBASE.dll
		10.0.17134.1 (WinBuild.160101.0800)C:\Windows\System32\ADVAPI32.dll
		7.0.17134.1 (WinBuild.160101.0800)C:\Windows\System32\msvcrt.dll
		10.0.17134.1 (WinBuild.160101.0800)C:\Windows\System32\sechost.dll
		10.0.17134.1 (WinBuild.160101.0800)C:\Windows\System32\RPCRT4.dll
		10.0.17134.376 (WinBuild.160101.0800)C:\Windows\System32\SspiCli.dll
		10.0.17134.1 (WinBuild.160101.0800)C:\Windows\System32\CRYPTBASE.dll
		10.0.17134.471 (WinBuild.160101.0800)C:\Windows\System32\bcryptPrimitives.dll
		4.7.3056.0 built by: NET472REL1C:\Windows\Microsoft.NET\Framework\v4.0.30319\mscoreei.dll
		10.0.17134.1 (WinBuild.160101.0800)C:\Windows\System32\SHLWAPI.dll
		10.0.17134.1 (WinBuild.160101.0800)C:\Windows\System32\combase.dll
		10.0.17134.319 (WinBuild.160101.0800)C:\Windows\System32\ucrtbase.dll
		10.0.17134.285 (WinBuild.160101.0800)C:\Windows\System32\GDI32.dll
		10.0.17134.471 (WinBuild.160101.0800)C:\Windows\System32\gdi32full.dll
		10.0.17134.1 (WinBuild.160101.0800)C:\Windows\System32\msvcp_win.dll
		10.0.17134.1 (WinBuild.160101.0800)C:\Windows\System32\USER32.dll
		10.0.17134.1 (WinBuild.160101.0800)C:\Windows\System32\win32u.dll
		10.0.17134.1 (WinBuild.160101.0800)C:\Windows\System32\IMM32.DLL
		10.0.17134.112 (WinBuild.160101.0800)C:\Windows\System32\kernel.appcore.dll
		10.0.17134.1 (WinBuild.160101.0800)C:\Windows\SYSTEM32\VERSION.dll
		4.7.3260.0 built by: NET472REL1LAST_CC:\Windows\Microsoft.NET\Framework\v4.0.30319\clr.dll
		12.00.52519.0 built by: VSWINSERVICINGC:\Windows\SYSTEM32\MSVCR120_CLR0400.dll
		4.7.3260.0 built by: NET472REL1LAST_CC:\Windows\assembly\NativeImages_v4.0.30319_32\mscorlib\6715dc4d04e35f16d482900c355325e9\mscorlib.ni.dll
		10.0.17134.1 (WinBuild.160101.0800)C:\Windows\System32\ole32.dll
		10.0.17134.1 (WinBuild.160101.0800)C:\Windows\system32\uxtheme.dll
		4.7.3260.0 built by: NET472REL1LAST_CC:\Windows\Microsoft.NET\Framework\v4.0.30319\clrjit.dll
		10.0.17134.48 (WinBuild.160101.0800)C:\Windows\System32\OLEAUT32.dll
		4.7.3314.0 built by: NET472REL1LAST_BC:\Windows\assembly\NativeImages_v4.0.30319_32\System\b25aa23cb6124cbf3bc169bb0cfd519d\System.ni.dll
		4.7.3056.0 built by: NET472REL1C:\Windows\assembly\NativeImages_v4.0.30319_32\System.Drawing\02bafcf9c2511af76eb0da8d993b9b0c\System.Drawing.ni.dll
		4.7.3221.0 built by: NET472REL1LAST_CC:\Windows\assembly\NativeImages_v4.0.30319_32\System.Windows.Forms\9c83b97c79134abff0c628e09c7715ac\System.Windows.Forms.ni.dll
		10.0.17134.1 (WinBuild.160101.0800)C:\Windows\SYSTEM32\CRYPTSP.dll
		10.0.17134.1 (WinBuild.160101.0800)C:\Windows\system32\rsaenh.dll
		10.0.17134.1 (WinBuild.160101.0800)C:\Windows\SYSTEM32\bcrypt.dll
		4.7.3221.0 built by: NET472REL1LAST_CC:\Windows\assembly\NativeImages_v4.0.30319_32\System.Core\d74326b9518cdee2d987cd01b4aa673a\System.Core.ni.dll
		4.7.3056.0 built by: NET472REL1C:\Windows\assembly\NativeImages_v4.0.30319_32\System.Configuration\f8042ba59a0b5579e8e5d123bfd1cccf\System.Configuration.ni.dll
		4.7.3056.0 built by: NET472REL1C:\Windows\assembly\NativeImages_v4.0.30319_32\System.Xml\aff318269006d861a332e55de85d82a3\System.Xml.ni.dll
		10.0.17134.1 (WinBuild.160101.0800)C:\Windows\System32\shell32.dll
		10.0.17134.1 (WinBuild.160101.0800)C:\Windows\System32\cfgmgr32.dll
		10.0.17134.1 (WinBuild.160101.0800)C:\Windows\System32\shcore.dll
		10.0.17134.1 (WinBuild.160101.0800)C:\Windows\System32\windows.storage.dll
		10.0.17134.1 (WinBuild.160101.0800)C:\Windows\System32\profapi.dll
		10.0.17134.1 (WinBuild.160101.0800)C:\Windows\System32\powrprof.dll
		10.0.17134.1 (WinBuild.160101.0800)C:\Windows\System32\FLTLIB.DLL
		5.82 (WinBuild.160101.0800)   C:\Windows\WinSxS\x86_microsoft.windows.common-controls_6595b64144ccf1df_5.82.17134.523_none_40fda94a45138881\comctl32.dll
		10.0.17134.1 (WinBuild.160101.0800)C:\Windows\system32\dwmapi.dll
		10.0.17134.523 (WinBuild.160101.0800)C:\Windows\WinSxS\x86_microsoft.windows.gdiplus_6595b64144ccf1df_1.1.17134.523_none_73d8c7959f75cd2a\gdiplus.dll
		10.0.17134.1 (WinBuild.160101.0800)C:\Windows\SYSTEM32\DWrite.dll
		10.0.17134.1 (WinBuild.160101.0800)C:\Windows\System32\MSCTF.dll
		4.7.3221.0 built by: NET472REL1LAST_CC:\Windows\assembly\NativeImages_v4.0.30319_32\WindowsBase\03e3502f3247d915cc335712fd85523f\WindowsBase.ni.dll
		4.7.3221.0 built by: NET472REL1LAST_CC:\Windows\assembly\NativeImages_v4.0.30319_32\PresentationCore\7e29673b498ec3e1357cdcac4dcba883\PresentationCore.ni.dll
		4.7.3221.0                    C:\Windows\assembly\NativeImages_v4.0.30319_32\Presentatio5ae0f00f#\d103a771e35a668cc57e59f18a4d869d\PresentationFramework.ni.dll
		4.7.3221.0 built by: NET472REL1LAST_CC:\Windows\assembly\NativeImages_v4.0.30319_32\System.Xaml\a81daa8eda20dc900f6c3900b7bdd770\System.Xaml.ni.dll
		4.7.3221.0 built by: NET472REL1LAST_CC:\Windows\Microsoft.NET\Framework\v4.0.30319\WPF\wpfgfx_v0400.dll
		12.00.52519.0 built by: VSWINSERVICINGC:\Windows\SYSTEM32\MSVCP120_CLR0400.dll
		4.7.3221.0 built by: NET472REL1LAST_CC:\Windows\Microsoft.NET\Framework\v4.0.30319\WPF\PresentationNative_v0400.dll
		10.0.17134.345 (WinBuild.160101.0800)C:\Windows\SYSTEM32\WindowsCodecs.dll
		10.0.17134.376 (WinBuild.160101.0800)C:\Windows\System32\TextInputFramework.dll
		10.0.17134.376                C:\Windows\System32\CoreUIComponents.dll
		10.0.17134.1                  C:\Windows\System32\CoreMessaging.dll
		10.0.17134.1 (WinBuild.160101.0800)C:\Windows\SYSTEM32\ntmarta.dll
		10.0.17134.1 (WinBuild.160101.0800)C:\Windows\SYSTEM32\wintypes.dll
		2001.12.10941.16384 (WinBuild.160101.0800)C:\Windows\System32\clbcatq.dll
		12.60.240.0                   D:\load\bin\RegistryUtil.dll
		14.10.25008.0 built by: VCTOOLSD15RTMC:\Windows\SYSTEM32\VCRUNTIME140.dll
		14.10.25008.0 built by: VCTOOLSD15RTMC:\Windows\SYSTEM32\mfc140.dll
		6.10 (WinBuild.160101.0800)   C:\Windows\WinSxS\x86_microsoft.windows.common-controls_6595b64144ccf1df_6.0.17134.523_none_42edd4b044e3535c\comctl32.dll
		11.00.17134.1 (WinBuild.160101.0800)C:\Windows\SYSTEM32\urlmon.dll
		11.00.17134.1 (WinBuild.160101.0800)C:\Windows\SYSTEM32\iertutil.dll
		7.0.17134.1 (WinBuild.160101.0800)C:\Windows\SYSTEM32\PROPSYS.dll
		4.7.3101.0 built by: NET472REL1LAST_BC:\Windows\assembly\NativeImages_v4.0.30319_32\System.Security\82122c5ef4c6fc662a51109bda8aecdd\System.Security.ni.dll
		10.0.17134.1 (WinBuild.160101.0800)C:\Windows\system32\IconCodecService.dll
		4.7.3056.0 built by: NET472REL1C:\Windows\assembly\NativeImages_v4.0.30319_32\System.Management\52dcea5119da095a3f3250be2ed75811\System.Management.ni.dll
		4.7.3056.0 built by: NET472REL1C:\Windows\Microsoft.NET\Framework\v4.0.30319\wminet_utils.dll
		10.0.17134.1 (WinBuild.160101.0800)C:\Windows\system32\wbem\wmiutils.dll
		10.0.17134.1 (WinBuild.160101.0800)C:\Windows\SYSTEM32\wbemcomn.dll
		10.0.17134.1 (WinBuild.160101.0800)C:\Windows\System32\WS2_32.dll
		10.0.17134.1 (WinBuild.160101.0800)C:\Windows\system32\wbem\wbemsvc.dll
		10.0.17134.1 (WinBuild.160101.0800)C:\Windows\system32\wbem\fastprox.dll
		10.0.17134.81 (WinBuild.160101.0800)C:\Windows\SYSTEM32\d3d9.dll
		10.0.17134.1 (WinBuild.160101.0800)C:\Windows\System32\crypt32.dll
		10.0.17134.1 (WinBuild.160101.0800)C:\Windows\System32\MSASN1.dll
		10.0.17134.81 (WinBuild.160101.0800)C:\Windows\System32\WINTRUST.DLL
		10.0.17134.1 (WinBuild.160101.0800)C:\Windows\System32\imagehlp.dll
		4.7.3056.0 built by: NET472REL1C:\Windows\assembly\NativeImages_v4.0.30319_32\Presentatioaec034ca#\83e7843225892290b8a523d35cc1405d\PresentationFramework.Aero2.ni.dll
		4.7.3260.0 built by: NET472REL1LAST_CC:\Windows\assembly\NativeImages_v4.0.30319_32\System.Data\6a0be3462b724a7917ab7fb07e069315\System.Data.ni.dll
		4.7.3260.0 built by: NET472REL1LAST_CC:\Windows\Microsoft.Net\assembly\GAC_32\System.Data\v4.0_4.0.0.0__b77a5c561934e089\System.Data.dll
		4.7.3221.0 built by: NET472REL1LAST_CC:\Windows\Microsoft.Net\assembly\GAC_32\System.Transactions\v4.0_4.0.0.0__b77a5c561934e089\System.Transactions.dll
		1.0.105.2                     D:\load\bin\SQLite.Interop.dll
		4.7.3260.0 built by: NET472REL1LAST_CC:\Windows\assembly\NativeImages_v4.0.30319_32\System.Runteb92aa12#\4a44b0fe1ee3f735e919be57fc6d05da\System.Runtime.Serialization.ni.dll
		4.7.3056.0 built by: NET472REL1C:\Windows\Microsoft.Net\assembly\GAC_32\System.EnterpriseServices\v4.0_4.0.0.0__b03f5f7f11d50a3a\System.EnterpriseServices.Wrapper.dll
		7.2.17134.1 (WinBuild.160101.0800)C:\Windows\SYSTEM32\UIAutomationCore.dll
		10.0.17134.1 (WinBuild.160101.0800)C:\Windows\SYSTEM32\mscms.dll
		10.0.17134.1 (WinBuild.160101.0800)C:\Windows\SYSTEM32\USERENV.dll
		10.0.17134.1 (WinBuild.160101.0800)C:\Windows\SYSTEM32\ColorAdapterClient.dll
		10.0.17134.1 (WinBuild.160101.0800)C:\Windows\SYSTEM32\WindowsCodecsExt.dll
		10.0.17134.1 (WinBuild.160101.0800)C:\Windows\system32\dataexchange.dll
		10.0.17134.1 (WinBuild.160101.0800)C:\Windows\system32\dcomp.dll
		10.0.17134.441 (WinBuild.160101.0800)C:\Windows\system32\d3d11.dll
		10.0.17134.112 (WinBuild.160101.0800)C:\Windows\system32\dxgi.dll
		10.0.17134.1 (WinBuild.160101.0800)C:\Windows\system32\twinapi.appcore.dll
		10.0.17134.471 (WinBuild.160101.0800)C:\Windows\system32\RMCLIENT.dll
		10.0.17134.1 (WinBuild.160101.0800)C:\Windows\SYSTEM32\sxs.dll
		12.60.301.0                   D:\load\bin\RecentScripts.dll
		10.0.17134.1 (WinBuild.160101.0800)C:\Windows\System32\PSAPI.DLL
		12.60.610.0                   D:\load\bin\mosifs32.dll
		12.60.610.0                   D:\load\bin\wrapicu.dll
		12.60.610.0                   D:\load\bin\thrdutil.dll
		10.0.17134.1 (WinBuild.160101.0800)C:\Windows\SYSTEM32\IPHLPAPI.DLL
		55, 1, 0, 0                   D:\load\bin\icuuc55.dll
		55, 1, 0, 0                   D:\load\bin\icudt55.dll
		4.7.3282.0 built by: NET472REL1LAST_BC:\Windows\assembly\NativeImages_v4.0.30319_32\System.Web\2c19f113c92fa3f7227dc3ac74fc04b6\System.Web.ni.dll
		4.7.3282.0 built by: NET472REL1LAST_BC:\Windows\Microsoft.NET\Framework\v4.0.30319\webengine4.dll
		12.60.240.0                   D:\load\bin\snapshotloaderwrap.dll
		12.60.582.0                   D:\load\bin\ViewerGen.dll
		10.0.17134.1 (WinBuild.160101.0800)C:\Windows\SYSTEM32\atlthunk.dll
		11.00.17134.441 (WinBuild.160101.0800)C:\Windows\System32\ieframe.dll
		10.0.17134.1 (WinBuild.160101.0800)C:\Windows\System32\NETAPI32.dll
		10.0.17134.1 (WinBuild.160101.0800)C:\Windows\System32\WINHTTP.dll
		10.0.17134.1 (WinBuild.160101.0800)C:\Windows\System32\WKSCLI.DLL
		10.0.17134.1 (WinBuild.160101.0800)C:\Windows\System32\NETUTILS.DLL
		10.0.17134.1 (WinBuild.160101.0800)C:\Windows\System32\appresolver.dll
		10.0.17134.1 (WinBuild.160101.0800)C:\Windows\System32\SLC.dll
		10.0.17134.1 (WinBuild.160101.0800)C:\Windows\System32\Bcp47Langs.dll
		10.0.17134.1 (WinBuild.160101.0800)C:\Windows\System32\sppc.dll
		11.00.17134.523 (WinBuild.160101.0800)C:\Windows\SYSTEM32\msIso.dll
		10.0.17134.1 (WinBuild.160101.0800)C:\Windows\SYSTEM32\LINKINFO.dll
		11.00.17134.48 (WinBuild.160101.0800)C:\Windows\System32\mshtml.dll
		11.00.17134.1 (WinBuild.160101.0800)C:\Windows\System32\WININET.dll
		10.0.17134.1 (WinBuild.160101.0800)C:\Windows\SYSTEM32\ntshrui.dll
		10.0.17134.1 (WinBuild.160101.0800)C:\Windows\SYSTEM32\srvcli.dll
		10.0.17134.1 (WinBuild.160101.0800)C:\Windows\SYSTEM32\cscapi.dll
		10.0.17134.191 (WinBuild.160101.0800)C:\Windows\SYSTEM32\policymanager.dll
		10.0.17134.1 (WinBuild.160101.0800)C:\Windows\SYSTEM32\msvcp110_win.dll
		10.0.17134.1 (WinBuild.160101.0800)C:\Windows\System32\srpapi.dll
		10.0.17134.1 (WinBuild.160101.0800)C:\Windows\system32\mlang.dll
		10.0.17134.1 (WinBuild.160101.0800)C:\Windows\SYSTEM32\WLDP.DLL
		12.60.582.0                   D:\load\bin\ielpview.dll
		14.10.25008.0 built by: VCTOOLSD15RTMC:\Windows\SYSTEM32\MSVCP140.dll
		12.60.582.0                   D:\load\bin\AsmHook.dll
		10.0.17134.1 (WinBuild.160101.0800)C:\Windows\SYSTEM32\rasapi32.dll
		10.0.17134.1 (WinBuild.160101.0800)C:\Windows\SYSTEM32\rasman.dll
		10.0.17134.1 (WinBuild.160101.0800)C:\Windows\SYSTEM32\rtutils.dll
		12.60.582.0                   D:\load\bin\VirFileSystemMng.dll
		10.0.17134.1 (WinBuild.160101.0800)C:\Windows\system32\mswsock.dll
		12.60.582.0                   D:\load\bin\VirPrivateProfiles.dll
		10.0.17134.1 (WinBuild.160101.0800)C:\Windows\System32\NSI.dll
		10.0.17134.1 (WinBuild.160101.0800)C:\Windows\SYSTEM32\dhcpcsvc6.DLL
		10.0.17134.1 (WinBuild.160101.0800)C:\Windows\SYSTEM32\dhcpcsvc.DLL
		10.0.17134.1 (WinBuild.160101.0800)C:\Windows\SYSTEM32\DNSAPI.dll
		10.0.17134.1 (WinBuild.160101.0800)C:\Windows\SYSTEM32\WINNSI.DLL
		10.0.17134.1 (WinBuild.160101.0800)C:\Windows\System32\rasadhlp.dll
		10.0.17134.1 (WinBuild.160101.0800)C:\Windows\system32\msimtf.dll
		3.10.349.0                    C:\Windows\System32\msls31.dll
		10.0.17134.1 (WinBuild.160101.0800)C:\Windows\System32\d2d1.dll
		4.7.3056.0 built by: NET472REL1C:\Windows\assembly\NativeImages_v4.0.30319_32\System.Numerics\6a99c6e22e52c77c1ab79e468cb75d4c\System.Numerics.ni.dll
		10.0.17134.112 (WinBuild.160101.0800)C:\Windows\SYSTEM32\d3d10warp.dll
		10.0.17134.1 (WinBuild.160101.0800)C:\Windows\SYSTEM32\Secur32.dll
		4.7.3056.0 built by: NET472REL1C:\Windows\assembly\NativeImages_v4.0.30319_32\System.Xml.Linq\db6fedae8107471b36baadfcc117d63a\System.Xml.Linq.ni.dll
		10.0.17134.1 (WinBuild.160101.0800)C:\Windows\System32\fwpuclnt.dll
		10.0.17134.1 (WinBuild.160101.0800)C:\Windows\System32\schannel.dll
		5.31.23.1231                  C:\Windows\SYSTEM32\RichEd20.DLL
		10.0.17134.1 (WinBuild.160101.0800)C:\Windows\SYSTEM32\USP10.dll
		10.0.17134.1 (WinBuild.160101.0800)C:\Windows\SYSTEM32\mskeyprotect.dll
		10.0.17134.1 (WinBuild.160101.0800)C:\Windows\SYSTEM32\ncrypt.dll
		10.0.17134.1 (WinBuild.160101.0800)C:\Windows\SYSTEM32\NTASN1.dll
		10.0.17134.137 (WinBuild.160101.0800)C:\Windows\system32\ncryptsslp.dll
		10.0.17134.1 (WinBuild.160101.0800)C:\Windows\SYSTEM32\wtsapi32.dll
		10.0.17134.1 (WinBuild.160101.0800)C:\Windows\SYSTEM32\WINSTA.dll
		10.0.17134.1 (WinBuild.160101.0800)C:\Windows\system32\msctfui.dll
		10.0.17134.1 (WinBuild.160101.0800)C:\Windows\system32\explorerframe.dll
		23.21.13.9125                 C:\Windows\System32\DriverStore\FileRepository\nvlt.inf_amd64_a6bf104b7144aa93\nvldumd.dll
		23.21.13.9125                 C:\Windows\System32\DriverStore\FileRepository\nvlt.inf_amd64_a6bf104b7144aa93\nvd3dum.dll
		10.0.17134.1 (WinBuild.160101.0800)C:\Windows\SYSTEM32\WINMM.dll
		10.0.17134.1 (WinBuild.160101.0800)C:\Windows\SYSTEM32\WINMMBASE.dll
		3.13.1.30                     C:\Windows\system32\nvspcap.dll
		24.20.100.6025                C:\Windows\System32\DriverStore\FileRepository\ki127807.inf_amd64_fc915899816dbc5d\igdumdim32.dll
		24.20.100.6025                C:\Windows\System32\DriverStore\FileRepository\ki127807.inf_amd64_fc915899816dbc5d\igd9dxva32.dll
		24.20.100.6025                C:\Windows\System32\DriverStore\FileRepository\ki127807.inf_amd64_fc915899816dbc5d\igc32.dll
		10.0.17134.1 (WinBuild.160101.0800)C:\Windows\SYSTEM32\D3DCOMPILER_47.dll
		10.0.17134.1 (WinBuild.160101.0800)C:\Windows\system32\apphelp.dll
		14.7.3056.0 built by: NET472REL1C:\Windows\Microsoft.NET\Framework\v4.0.30319\diasymreader.dll
		10.0.17134.1 (WinBuild.160101.0800)C:\Windows\system32\Ninput.dll
		10.0.17134.1 (WinBuild.160101.0800)C:\Program Files (x86)\Common Files\microsoft shared\ink\tiptsf.dll
		10.0.17134.1 (WinBuild.160101.0800)C:\Windows\System32\thumbcache.dll
		10.0.17134.1 (WinBuild.160101.0800)C:\Windows\System32\OneCoreUAPCommonProxyStub.dll
		10.0.17134.1 (WinBuild.160101.0800)C:\Windows\SYSTEM32\samcli.dll
		10.0.17134.1 (WinBuild.160101.0800)C:\Windows\SYSTEM32\SAMLIB.dll
		18.240.1202.0004              C:\Users\pon\AppData\Local\Microsoft\OneDrive\18.240.1202.0004\FileSyncShell.dll
		10.0.17134.1 (WinBuild.160101.0800)C:\Windows\SYSTEM32\ktmw32.dll
		12.60.240.0                   D:\load\bin\HP.LR.VuGen.VugenIconOverlayHandler.dll
		10.0.17134.1 (WinBuild.160101.0800)C:\Windows\SYSTEM32\MPR.dll
		10.0.17134.1 (WinBuild.160101.0800)C:\Windows\System32\drprov.dll
		10.0.17134.1 (WinBuild.160101.0800)C:\Windows\System32\ntlanman.dll
		10.0.17134.1 (WinBuild.160101.0800)C:\Windows\System32\davclnt.dll
		10.0.17134.1 (WinBuild.160101.0800)C:\Windows\System32\DAVHLPR.dll
		10.0.17134.1 (WinBuild.160101.0800)C:\Windows\System32\dlnashext.dll
		10.0.17134.1 (WinBuild.160101.0800)C:\Windows\System32\DevDispItemProvider.dll
		10.0.17134.1 (WinBuild.160101.0800)C:\Windows\System32\DEVOBJ.dll
		10.0.17134.1 (WinBuild.160101.0800)C:\Windows\system32\wpdshext.dll
		10.0.17134.1 (WinBuild.160101.0800)C:\Windows\System32\PortableDeviceApi.dll
		10.0.17134.1 (WinBuild.160101.0800)C:\Windows\System32\SETUPAPI.dll
		10.0.17134.1 (WinBuild.160101.0800)C:\Windows\system32\audiodev.dll
		12.0.17134.137 (WinBuild.160101.0800)C:\Windows\system32\WMVCore.DLL
		10.0.17134.1 (WinBuild.160101.0800)C:\Windows\system32\mfperfhelper.dll
		12.0.17134.1 (WinBuild.160101.0800)C:\Windows\system32\WMASF.DLL
		12.60.240.0                   D:\load\bin\coparamui.dll
		12.60.240.0                   D:\load\bin\paramui.dll
		12.60.610.0                   D:\load\bin\PathResolver.dll
		12.60.610.0                   D:\load\bin\dtable32.dll
		12.60.610.0                   D:\load\bin\parameng.dll
		12.60.240.0                   D:\load\bin\lr_vug32.dll
		12.60.610.0                   D:\load\bin\msg_handler.dll
		12.60.610.0                   D:\load\bin\mlib_ds.dll
		12.60.610.0                   D:\load\bin\config.dll
		12.60.610.0                   D:\load\bin\libxdrutil.dll
		12.60.610.0                   D:\load\bin\run_time_context.dll
		24, 3, 0, 0                   D:\load\bin\BCGCBPRO2430140.dll
		10.0.17134.1 (WinBuild.160101.0800)C:\Windows\System32\COMDLG32.dll
		12.60.240.0                   D:\load\bin\inifile.dll
		12.60.610.0                   D:\load\bin\runlogic.dll
		12.60.610.0                   D:\load\bin\xdr.dll
		12.60.240.0                   D:\load\bin\MultiVuser.dll
		12.60.240.0                   D:\load\bin\vusercfg.dll
		10.0.17134.1 (WinBuild.160101.0800)C:\Windows\SYSTEM32\WINSPOOL.DRV
		10.0.17134.1 (WinBuild.160101.0800)C:\Windows\SYSTEM32\ODBC32.dll
		7.2.17134.1 (WinBuild.160101.0800)C:\Windows\SYSTEM32\OLEACC.dll
		10.0.17134.1 (WinBuild.160101.0800)C:\Windows\SYSTEM32\DPAPI.DLL
		12.60.610.0                   D:\load\bin\rtc_protocol.dll
		12.60.610.0                   D:\load\bin\comm_util.dll
		12.60.240.0                   D:\load\bin\is32.dll
		10.0.17134.1 (WinBuild.160101.0800)C:\Windows\SYSTEM32\msimg32.dll
		12.60.610.0                   D:\load\bin\paramlr.dll
		12.60.610.0                   D:\load\bin\paramtbl.dll
		12.60.610.0                   D:\load\bin\mmdtable.dll
		12.60.610.0                   D:\load\bin\libmemmap.dll
		12.60.610.0                   D:\load\bin\mmdbigtable.dll
		12.60.610.0                   D:\load\bin\paramcst.dll
		12.60.610.0                   D:\load\bin\paramunq.dll
		12.60.610.0                   D:\load\bin\paramfnc.dll
		12.60.610.0                   D:\load\bin\paramss.dll
		12.60.610.0                   D:\load\bin\paramdte.dll
		12.60.610.0                   D:\load\bin\paramvar.dll
		12.60.610.0                   D:\load\bin\paramrnd.dll
		12.60.971.0                   D:\load\bin\ArchiveManager.dll
		12.60.240.0                   D:\load\bin\runlogicview.ocx
		12.60.971.0                   D:\load\bin\HP.LR.VuGen.ScriptHandlerComWrapper.dll
		12.60.971.0                   D:\load\bin\lrscripthandler.DLL
		12.60.971.0                   D:\load\bin\webscripthandler.DLL
		12.60.971.0                   D:\load\bin\WebStepClsDesign.dll
		12.60.971.0                   D:\load\bin\WebStepClsShared.dll
		12.60.971.0                   D:\load\bin\DynWininet.dll
		12.60.971.0                   D:\load\bin\mshtmtr.dll
		12.60.610.0                   D:\load\bin\wraplwcrypto.dll
		12.60.971.0                   D:\load\bin\LrXmlScriptHandler.DLL
		12.60.240.0                   D:\load\bin\ReplayBinaryUtils32.dll
		10.0.17134.1 (WinBuild.160101.0800)C:\Windows\SYSTEM32\WSOCK32.dll
		12.60.971.0                   D:\load\bin\websteps_scripthandler.DLL
		12.60.240.0                   D:\load\bin\base_scripthandler.dll
		10.0.17134.1 (WinBuild.160101.0800)C:\Windows\SYSTEM32\RICHED32.DLL
		12.60.971.0                   D:\load\bin\WebUIRes.DLL
		12.60.971.0                   D:\load\bin\webservice_scripthandler.DLL
		12.60.971.0                   D:\load\bin\WSDLSDK.dll
		12.60.971.0                   D:\load\bin\ServiceManagementLight.dll
		12.60.971.0                   D:\load\bin\LrJni.dll
		12.60.971.0                   D:\load\bin\WebServicesSDK.dll
		12.60.610.0                   D:\load\bin\XmlParserInterface.dll
		12.60.971.0                   D:\load\bin\SoapRecordFilter.dll
		12.60.971.0                   D:\load\bin\WsCommonLogger.dll
		12.60.971.0                   D:\load\bin\WSDLParser.dll
		12.60.971.0                   D:\load\bin\WSDLUtilsU.dll
		3, 1, 2, 0                    D:\load\bin\xerces-c_3_1.dll
		12.60.610.0                   D:\load\bin\mic_regex.dll
		12.60.971.0                   D:\load\bin\ConfigurationUtil.dll
		12.60.971.0                   D:\load\bin\HttpUtils.dll
		12.60.971.0                   D:\load\bin\MicXMLDiffTool.dll
		1, 11, 0, 0                   D:\load\bin\Xalan-C_1_11.dll
		12.60.971.0                   D:\load\bin\WSDLToolkits.dll
		                              D:\load\bin\XalanMessages_1_11.dll
		12.60.971.0                   D:\load\bin\soap_scripthandler.DLL
		12.60.240.0                   D:\load\bin\ParamUINotification.dll
		0.22.0                        D:\load\bin\NativeBinaries\x86\git2-a56db99.DLL
		12.60.240.0                   D:\load\bin\HP.LR.VuGen.LrVugHelper.dll
		12.60.971.0                   D:\load\bin\TextContainer.dll
		10.0.17134.407 (WinBuild.160101.0800)C:\Windows\System32\coml2.dll
		12.60.240.0                   D:\load\bin\rtsxdlg.dll
		12.60.610.0                   D:\load\bin\ipng_utils.dll
		1.1.0g                        D:\load\bin\libssl-lt-1_1.dll
		1.1.0g                        D:\load\bin\libcrypto-lt-1_1.dll
		12.60.610.0                   D:\load\bin\trans.dll
		12.60.610.0                   D:\load\bin\lr_exp.dll
		12.60.610.0                   D:\load\bin\wrapzlib.dll
		12.60.610.0                   D:\load\bin\trans_server.dll
		12.60.610.0                   D:\load\bin\libdatatypes.dll
		12.60.610.0                   D:\load\bin\data_types_ifs.dll
		12.60.610.0                   D:\load\bin\timediff_ext.dll
		12.60.610.0                   D:\load\bin\jrequestor_srv.dll
		10.0.16299.91 (WinBuild.160101.0800)D:\load\bin\dbghelp.dll
		12.60.610.0                   D:\load\bin\dc_requests.dll
		10.0.16299.91 (WinBuild.160101.0800)D:\load\bin\dbgcore.DLL
		12.60.971.0                   D:\load\bin\comrec_tab.dll
		12.60.971.0                   D:\load\bin\script_language_helper.dll
		12.60.971.0                   D:\load\bin\tlb_query.dll
		12.60.971.0                   D:\load\bin\api_scrinfo.dll
		12.60.971.0                   D:\load\bin\unknown_only_helper.dll
		12.60.971.0                   D:\load\bin\xmlstorage.dll
		8.110.17134.471               C:\Windows\System32\msxml3.dll
		10.0.17134.1 (WinBuild.160101.0800)C:\Windows\SYSTEM32\edputil.dll
		12.60.240.0                   D:\load\bin\vugen_record_api.dll
		12.60.240.0                   D:\load\bin\insp_gen.dll
		12.60.240.0                   D:\load\bin\pefile.dll
		12.60.240.0                   D:\load\bin\inspdll.dll
		12.60.240.0                   D:\load\bin\HTTPSnapshotsWrapper.dll
		12.60.971.0                   D:\load\bin\Api_Filter_Helper.dll
		12.60.971.0                   D:\load\bin\type_info_pool.dll
		12.60.971.0                   D:\load\bin\CodeGenerationAPI.dll
		12.60.971.0                   D:\load\bin\InternalSDKUtils.dll
		12.60.971.0                   D:\load\bin\LRSDKUtilities.dll
		                              D:\load\bin\WebEventTrafficMap.dll
		12.60.971.0                   D:\load\bin\VuGenCallback.dll
		12.60.971.0                   D:\load\bin\traffic_filter.dll
		                              D:\load\bin\pcre-8.42.dll
		                              D:\load\bin\duktape.dll
		12.60.610.0                   D:\load\bin\lrun50.dll
		12.60.610.0                   D:\load\bin\merc_uuid.dll
		12.60.610.0                   D:\load\bin\faserver.dll
		12.60.610.0                   D:\load\bin\JsonParser.dll
		12.60.240.0                   D:\load\bin\threadsafefileoperator.dll
		12.60.582.0                   D:\load\bin\TulipAppInfo.dll
		12.60.610.0                   D:\load\bin\JsonParserWrapper.dll
		12.60.971.0                   D:\load\bin\MicSocket.dll
		12.60.971.0                   D:\load\bin\api_inspector.dll
		12.60.610.0                   D:\load\bin\trpfnc32.dll
		10.0.17134.1 (WinBuild.160101.0800)C:\Windows\System32\cryptui.dll
		12.60.971.0                   D:\load\bin\lrc_basic_filters.dll
		12.60.971.0                   D:\load\bin\api_event_parser.dll
		12.60.971.0                   D:\load\bin\api_sock_filter.dll
		12.60.971.0                   D:\load\bin\WebDataFormatsCodeGen.dll
		12.60.971.0                   D:\load\bin\DataFormatsEngine.dll
		12.60.971.0                   D:\load\bin\WebSnapshotsCommon.dll
		12.60.971.0                   D:\load\bin\WebSocketFilter.dll
		12.60.971.0                   D:\load\bin\VnpLog.dll
		12.60.971.0                   D:\load\bin\VnpUtils.dll
		12.60.971.0                   D:\load\bin\WebHTMLCodeGen.dll
		                              D:\load\bin\boost_system-vc140-mt-1_60.dll
		                              D:\load\bin\boost_filesystem-vc140-mt-1_60.dll
		12.60.971.0                   D:\load\bin\WebRecorder.dll
		12.60.971.0                   D:\load\bin\LrwiWebInfra.dll
		12.60.971.0                   D:\load\bin\WebCorrelation.dll
		12.60.610.0                   D:\load\bin\jconv_str.dll
		2.9.0                         D:\load\bin\cpprest140_2_9.dll
		12.60.610.0                   D:\load\bin\http_auth.dll
		10.0.17134.1 (WinBuild.160101.0800)C:\Windows\SYSTEM32\HTTPAPI.dll
		12.60.971.0                   D:\load\bin\LrwiStreamingParser.dll
		12.60.971.0                   D:\load\bin\LrXml.dll
		12.60.971.0                   D:\load\bin\LrJson.dll
		14.10.25008.0 built by: VCTOOLSD15RTMC:\Windows\SYSTEM32\CONCRT140.dll
		12.60.971.0                   D:\load\bin\VnpReport.dll
		12.60.971.0                   D:\load\bin\WebConvertFromFormattedFilter.dll
		12.60.971.0                   D:\load\bin\WebConvertFromFormattedPostFilter.dll
		12.60.971.0                   D:\load\bin\WebExtractServerNameFilter.dll
		12.60.971.0                   D:\load\bin\lrc_com_filters.dll
		12.60.971.0                   D:\load\bin\WebRemoveLongBodyFilter.DLL
		12.60.971.0                   D:\load\bin\lrc_code_gen_filter.dll
